%YAML 1.1
%TAG !u! tag:unity3d.com,2011:
--- !u!74 &7400000
AnimationClip:
  m_ObjectHideFlags: 0
  m_CorrespondingSourceObject: {fileID: 0}
  m_PrefabInstance: {fileID: 0}
  m_PrefabAsset: {fileID: 0}
  m_Name: Move
  serializedVersion: 6
  m_Legacy: 0
  m_Compressed: 0
  m_UseHighQualityCurve: 1
  m_RotationCurves: []
  m_CompressedRotationCurves: []
  m_EulerCurves: []
  m_PositionCurves: []
  m_ScaleCurves: []
  m_FloatCurves: []
  m_PPtrCurves:
  - curve:
    - time: 0
      value: {fileID: 21300000, guid: f628790cb45850940b3b1c22376bce02, type: 3}
    - time: 0.083333336
      value: {fileID: 21300000, guid: c3e7a17040a5bf4409c905aafc134338, type: 3}
    - time: 0.16666667
      value: {fileID: 21300000, guid: e17e5fdb5cf4b9f48b30fe4addbf0258, type: 3}
    - time: 0.25
      value: {fileID: 21300000, guid: 5c3b32e735dddef4db96b8c89b6df912, type: 3}
    - time: 0.33333334
      value: {fileID: 21300000, guid: 0888993f932a11948a3fb58a6a054b7f, type: 3}
    - time: 0.41666666
      value: {fileID: 21300000, guid: 332a3189649529a4d855e80e46872b57, type: 3}
    - time: 0.5
      value: {fileID: 21300000, guid: 8996276cd0f15804e9a23446824b1e7d, type: 3}
    - time: 0.5833333
      value: {fileID: 21300000, guid: e713ff47364825a41aca0ea279065d68, type: 3}
    attribute: m_Sprite
    path: 
    classID: 212
    script: {fileID: 0}
  m_SampleRate: 12
  m_WrapMode: 0
  m_Bounds:
    m_Center: {x: 0, y: 0, z: 0}
    m_Extent: {x: 0, y: 0, z: 0}
  m_ClipBindingConstant:
    genericBindings:
    - serializedVersion: 2
      path: 0
      attribute: 0
      script: {fileID: 0}
      typeID: 212
      customType: 23
      isPPtrCurve: 1
    pptrCurveMapping:
    - {fileID: 21300000, guid: f628790cb45850940b3b1c22376bce02, type: 3}
    - {fileID: 21300000, guid: c3e7a17040a5bf4409c905aafc134338, type: 3}
    - {fileID: 21300000, guid: e17e5fdb5cf4b9f48b30fe4addbf0258, type: 3}
    - {fileID: 21300000, guid: 5c3b32e735dddef4db96b8c89b6df912, type: 3}
    - {fileID: 21300000, guid: 0888993f932a11948a3fb58a6a054b7f, type: 3}
    - {fileID: 21300000, guid: 332a3189649529a4d855e80e46872b57, type: 3}
    - {fileID: 21300000, guid: 8996276cd0f15804e9a23446824b1e7d, type: 3}
    - {fileID: 21300000, guid: e713ff47364825a41aca0ea279065d68, type: 3}
  m_AnimationClipSettings:
    serializedVersion: 2
    m_AdditiveReferencePoseClip: {fileID: 0}
    m_AdditiveReferencePoseTime: 0
    m_StartTime: 0
    m_StopTime: 0.6666666
    m_OrientationOffsetY: 0
    m_Level: 0
    m_CycleOffset: 0
    m_HasAdditiveReferencePose: 0
    m_LoopTime: 1
    m_LoopBlend: 0
    m_LoopBlendOrientation: 0
    m_LoopBlendPositionY: 0
    m_LoopBlendPositionXZ: 0
    m_KeepOriginalOrientation: 0
    m_KeepOriginalPositionY: 1
    m_KeepOriginalPositionXZ: 0
    m_HeightFromFeet: 0
    m_Mirror: 0
  m_EditorCurves: []
  m_EulerEditorCurves: []
  m_HasGenericRootTransform: 0
  m_HasMotionFloatCurves: 0
  m_Events: []
